[gd_scene load_steps=3 format=2]

[ext_resource path="res://Player.gd" type="Script" id=1]

[sub_resource type="CapsuleShape" id=1]

[node name="Player" type="KinematicBody"]
script = ExtResource( 1 )

[node name="CollisionShape" type="CollisionShape" parent="."]
transform = Transform( 1, 0, 0, 0, -4.37114e-008, -1, 0, 1, -4.37114e-008, 0, 0, 0 )
shape = SubResource( 1 )

